<svg xmlns="http://www.w3.org/2000/svg" width="16" height="16" fill="none" viewBox="0 0 16 16">
  <circle cx="8" cy="8" r="8" fill="#D4145A"/>
  <path fill="#fff" d="M5.3 3.144v5.25c0 .32.262.583.583.583H7.05v4.171c0 .298.39.403.542.146l3.028-5.192a.58.58 0 00-.502-.875H8.8l1.452-3.879a.58.58 0 00-.542-.787H5.883a.585.585 0 00-.583.583z"/>
</svg>
