<svg xmlns="http://www.w3.org/2000/svg" width="24" height="24" fill="none" viewBox="0 0 24 24">
  <path fill="#000" fill-opacity=".54" fill-rule="evenodd" d="M7 3h10c1.1 0 2 .9 2 2v16l-7-3-7 3 .01-16c0-1.1.89-2 1.99-2zm4.442 11.457a.832.832 0 001.12.004l.042-.037.025-.023c2.174-1.975 3.596-3.267 3.538-4.877a2.275 2.275 0 00-.975-1.788c-1.1-.754-2.459-.4-3.192.459-.733-.859-2.092-1.209-3.192-.459-.587.4-.95 1.08-.975 1.788-.054 1.617 1.375 2.912 3.563 4.892l.046.041z" clip-rule="evenodd"/>
</svg>
