<svg width="45" height="45" viewBox="0 0 45 45" fill="none" xmlns="http://www.w3.org/2000/svg">
<circle cx="22.5" cy="22.5" r="22.5" fill="#F2994A"/>
<path d="M36.1134 18.234L33.1206 13.1184C32.9046 12.7664 32.5961 12.4772 32.2271 12.2807C31.8582 12.0843 31.4422 11.9878 31.0222 12.0012H14.8714C14.5179 12.0017 14.1742 12.1152 13.8931 12.3246C13.6119 12.534 13.4088 12.8276 13.3148 13.1604H15.6798C15.7565 13.1608 15.8321 13.1784 15.9007 13.2119C15.9693 13.2454 16.0291 13.2939 16.0754 13.3536C16.1396 13.4391 16.1756 13.5417 16.1786 13.6476C16.1773 13.7275 16.1563 13.8058 16.1174 13.876C16.0785 13.9462 16.0228 14.0062 15.955 14.0508C15.873 14.1022 15.7772 14.1285 15.6798 14.1264H13.0998C12.9819 14.1286 12.8694 14.1753 12.786 14.2568C12.7026 14.3382 12.6548 14.4481 12.6526 14.5632C12.6531 14.6679 12.6912 14.769 12.7604 14.8489C12.8296 14.9288 12.9254 14.9823 13.031 15H29.371C29.5041 14.8029 29.6837 14.6397 29.8947 14.5242C30.1057 14.4088 30.3419 14.3444 30.5836 14.3364H31.7532C32.2246 14.3188 32.6918 14.4277 33.1043 14.6513C33.5167 14.875 33.8584 15.2047 34.0924 15.6048L35.0384 17.6964C35.0629 17.7582 35.0717 17.8248 35.0643 17.8906C35.0568 17.9564 35.0332 18.0195 34.9954 18.0744C34.9533 18.1376 34.896 18.1898 34.8286 18.2264C34.7611 18.263 34.6855 18.2829 34.6084 18.2844H28.8464L27.9864 23.0472H29.6204C29.7793 22.4403 30.1348 21.8998 30.6338 21.5062C31.1328 21.1127 31.7487 20.8871 32.3896 20.8632C32.6757 20.8526 32.9607 20.9038 33.2241 21.0133C33.4876 21.1227 33.7231 21.2877 33.9137 21.4963C34.1043 21.705 34.2454 21.9522 34.3269 22.2203C34.4083 22.4884 34.4281 22.7708 34.3848 23.0472H37.4894C37.4894 23.0472 39.2696 19.326 36.1134 18.234Z" fill="white"/>
<g opacity="0.75">
<path opacity="0.75" d="M19.266 21.3588C18.7405 21.377 18.2366 21.5675 17.8356 21.8998C17.4346 22.232 17.1599 22.6865 17.0558 23.19C17.0028 23.4149 17.0036 23.6486 17.058 23.8732C17.1124 24.0977 17.2189 24.307 17.3694 24.4849C17.5199 24.6628 17.7103 24.8044 17.9259 24.8989C18.1414 24.9933 18.3763 25.038 18.6124 25.0296C19.1381 25.0106 19.6417 24.8185 20.0414 24.4846C20.4411 24.1506 20.7134 23.6943 20.814 23.19C20.867 22.9662 20.8665 22.7336 20.8126 22.51C20.7587 22.2865 20.6527 22.0781 20.503 21.901C20.3533 21.7239 20.1638 21.5829 19.9493 21.4888C19.7348 21.3948 19.501 21.3503 19.266 21.3588ZM20.0314 23.19C19.9717 23.4826 19.8127 23.7471 19.5803 23.9406C19.3478 24.1342 19.0553 24.2456 18.75 24.2568C18.6146 24.2617 18.4799 24.2354 18.3569 24.1798C18.2339 24.1242 18.126 24.041 18.0422 23.937C17.9584 23.833 17.9009 23.7112 17.8744 23.5813C17.848 23.4515 17.8533 23.3174 17.89 23.19C17.9497 22.8974 18.1087 22.6329 18.3411 22.4394C18.5736 22.2458 18.8661 22.1344 19.1714 22.1232C19.3068 22.1183 19.4415 22.1446 19.5645 22.2002C19.6875 22.2558 19.7953 22.339 19.8792 22.443C19.963 22.547 20.0205 22.6688 20.047 22.7987C20.0734 22.9285 20.0681 23.0626 20.0314 23.19Z" fill="white"/>
<path opacity="0.75" d="M19.0596 22.5012C18.856 22.4979 18.6578 22.5654 18.5003 22.6915C18.3428 22.8177 18.2362 22.9943 18.1996 23.19C18.1799 23.2748 18.1803 23.3628 18.2008 23.4474C18.2212 23.532 18.2612 23.6109 18.3176 23.6782C18.374 23.7454 18.4453 23.7992 18.5262 23.8354C18.6071 23.8716 18.6954 23.8893 18.7844 23.8872C18.9893 23.8901 19.1885 23.8215 19.3462 23.6936C19.5038 23.5658 19.6096 23.3872 19.6444 23.19C19.6643 23.1056 19.664 23.0179 19.6436 22.9337C19.6231 22.8494 19.5831 22.7709 19.5265 22.7043C19.4699 22.6376 19.3983 22.5846 19.3173 22.5494C19.2364 22.5142 19.1482 22.4977 19.0596 22.5012Z" fill="white"/>
<path opacity="0.75" d="M32.3036 21.3588C31.7791 21.3773 31.2764 21.5682 30.8769 21.9006C30.4773 22.2329 30.2043 22.6872 30.102 23.19C30.0493 23.4142 30.0499 23.6471 30.1038 23.871C30.1577 24.0949 30.2635 24.3038 30.413 24.4814C30.5626 24.6591 30.7518 24.8009 30.9663 24.896C31.1807 24.991 31.4146 25.0367 31.65 25.0296C32.1767 25.011 32.6816 24.8192 33.0827 24.4853C33.4839 24.1514 33.7578 23.695 33.8602 23.19C33.9116 22.9657 33.9097 22.7329 33.8546 22.5094C33.7995 22.2859 33.6927 22.0778 33.5424 21.901C33.392 21.7241 33.2022 21.5833 32.9875 21.4893C32.7727 21.3953 32.5388 21.3507 32.3036 21.3588ZM33.069 23.19C33.0093 23.4826 32.8503 23.747 32.6178 23.9406C32.3854 24.1342 32.0929 24.2455 31.7876 24.2568C31.6522 24.2617 31.5175 24.2353 31.3945 24.1798C31.2715 24.1242 31.1636 24.041 31.0798 23.937C30.996 23.833 30.9385 23.7112 30.912 23.5813C30.8856 23.4515 30.8909 23.3174 30.9276 23.19C30.9873 22.8974 31.1462 22.6329 31.3787 22.4394C31.6112 22.2458 31.9037 22.1344 32.209 22.1232C32.3444 22.1182 32.4791 22.1446 32.6021 22.2002C32.7251 22.2558 32.8329 22.3389 32.9168 22.4429C33.0006 22.5469 33.0581 22.6688 33.0846 22.7986C33.111 22.9285 33.1057 23.0626 33.069 23.19Z" fill="white"/>
<path opacity="0.75" d="M32.1058 22.5012C31.9022 22.4979 31.704 22.5654 31.5465 22.6915C31.389 22.8177 31.2824 22.9943 31.2458 23.19C31.2243 23.2749 31.2234 23.3636 31.2432 23.4489C31.2629 23.5343 31.3027 23.6139 31.3595 23.6816C31.4163 23.7493 31.4884 23.8031 31.5702 23.8388C31.652 23.8745 31.7411 23.891 31.8306 23.8872C32.0355 23.8901 32.2347 23.8215 32.3924 23.6936C32.55 23.5658 32.6558 23.3872 32.6906 23.19C32.7105 23.1056 32.7103 23.0179 32.6898 22.9337C32.6693 22.8494 32.6293 22.7709 32.5727 22.7043C32.5161 22.6376 32.4445 22.5846 32.3636 22.5494C32.2826 22.5142 32.1944 22.4977 32.1058 22.5012Z" fill="white"/>
<path opacity="0.75" d="M10.0984 16.4868H11.3626C11.4262 16.4757 11.4837 16.4431 11.5252 16.3947C11.5666 16.3463 11.5893 16.2853 11.5893 16.2222C11.5893 16.1591 11.5666 16.098 11.5252 16.0496C11.4837 16.0013 11.4262 15.9687 11.3626 15.9576H10.0984C10.0588 15.9506 10.0181 15.9523 9.97922 15.9624C9.94032 15.9725 9.90418 15.9908 9.87332 16.016C9.84246 16.0413 9.81764 16.0728 9.80061 16.1084C9.78358 16.144 9.77475 16.1829 9.77475 16.2222C9.77475 16.2615 9.78358 16.3003 9.80061 16.3359C9.81764 16.3715 9.84246 16.4031 9.87332 16.4283C9.90418 16.4535 9.94032 16.4718 9.97922 16.4819C10.0181 16.492 10.0588 16.4937 10.0984 16.4868Z" fill="white"/>
<path opacity="0.75" d="M9.4706 20.6868H10.7348C10.7984 20.6757 10.8559 20.6431 10.8974 20.5947C10.9388 20.5463 10.9615 20.4853 10.9615 20.4222C10.9615 20.3591 10.9388 20.298 10.8974 20.2497C10.8559 20.2013 10.7984 20.1687 10.7348 20.1576H9.4706C9.43099 20.1507 9.3903 20.1523 9.35141 20.1624C9.31252 20.1725 9.27637 20.1908 9.24551 20.2161C9.21465 20.2413 9.18983 20.2728 9.1728 20.3084C9.15577 20.344 9.14694 20.3829 9.14694 20.4222C9.14694 20.4615 9.15577 20.5003 9.1728 20.5359C9.18983 20.5715 9.21465 20.6031 9.24551 20.6283C9.27637 20.6535 9.31252 20.6718 9.35141 20.682C9.3903 20.6921 9.43099 20.6937 9.4706 20.6868Z" fill="white"/>
<path opacity="0.75" d="M11.4228 12.9252H12.6784C12.742 12.9141 12.7995 12.8815 12.841 12.8331C12.8824 12.7847 12.9052 12.7237 12.9052 12.6606C12.9052 12.5975 12.8824 12.5364 12.841 12.4881C12.7995 12.4397 12.742 12.4071 12.6784 12.396H11.4228C11.3832 12.3891 11.3425 12.3907 11.3036 12.4008C11.2647 12.4109 11.2286 12.4292 11.1977 12.4545C11.1669 12.4797 11.142 12.5112 11.125 12.5468C11.108 12.5824 11.0992 12.6213 11.0992 12.6606C11.0992 12.6999 11.108 12.7387 11.125 12.7743C11.142 12.8099 11.1669 12.8415 11.1977 12.8667C11.2286 12.8919 11.2647 12.9103 11.3036 12.9204C11.3425 12.9305 11.3832 12.9321 11.4228 12.9252Z" fill="white"/>
<path opacity="0.75" d="M9.5394 21.6108H8.2752C8.2029 21.6129 8.13415 21.6419 8.083 21.6918C8.03185 21.7418 8.00216 21.809 8 21.8796C8.00224 21.9494 8.03221 22.0156 8.08358 22.0642C8.13495 22.1128 8.20368 22.14 8.2752 22.14H9.5394C9.61011 22.14 9.67792 22.1125 9.72791 22.0637C9.77791 22.0149 9.806 21.9486 9.806 21.8796C9.80603 21.8097 9.77822 21.7426 9.72846 21.6924C9.67869 21.6422 9.61089 21.613 9.5394 21.6108Z" fill="white"/>
<path opacity="0.75" d="M34.574 18.0828C34.617 18.0822 34.6593 18.0712 34.6968 18.0507C34.7344 18.0301 34.7661 18.0007 34.789 17.9652C34.8048 17.9353 34.8131 17.9022 34.8131 17.8686C34.8131 17.835 34.8048 17.8018 34.789 17.772L33.8688 15.6804C33.6507 15.3215 33.3393 15.0253 32.9663 14.8217C32.5933 14.6182 32.1718 14.5145 31.7446 14.5212H30.575C30.2803 14.5341 29.9983 14.6427 29.774 14.8299C29.5496 15.017 29.3957 15.272 29.3366 15.5544L28.8894 18.0744H29.7494C29.6873 18.0247 29.6407 17.959 29.6149 17.8848C29.5891 17.8105 29.585 17.7307 29.6032 17.6544L29.9902 15.4704C30.0267 15.3011 30.1202 15.1487 30.2559 15.0376C30.3915 14.9264 30.5614 14.8629 30.7384 14.8572H31.7704C32.1107 14.8446 32.4467 14.9346 32.7329 15.1149C33.019 15.2953 33.2414 15.5572 33.37 15.8652L34.23 17.9652C34.2384 17.9822 34.2427 18.0009 34.2427 18.0198C34.2427 18.0387 34.2384 18.0573 34.23 18.0744L34.574 18.0828Z" fill="white"/>
</g>
<path fill-rule="evenodd" clip-rule="evenodd" d="M29.2592 15.1512C29.2062 15.2671 29.1659 15.3882 29.1388 15.5124L27.7972 23.0136H21.3472C21.3905 22.7371 21.3707 22.4548 21.2893 22.1867C21.2078 21.9186 21.0668 21.6713 20.8761 21.4627C20.6855 21.254 20.45 21.0891 20.1866 20.9796C19.9231 20.8702 19.6381 20.8189 19.352 20.8296C18.7111 20.8535 18.0952 21.079 17.5962 21.4726C17.0972 21.8662 16.7418 22.4067 16.5828 23.0136H11.3196C11.2164 23.0245 11.1119 23.0141 11.0131 22.983C10.9143 22.9518 10.8232 22.9007 10.7459 22.833C10.6687 22.7652 10.6069 22.6824 10.5645 22.5897C10.5222 22.4971 10.5004 22.3968 10.5004 22.2954C10.5004 22.194 10.5222 22.0937 10.5645 22.001C10.6069 21.9084 10.6687 21.8255 10.7459 21.7578C10.8232 21.69 10.9143 21.6389 11.0131 21.6078C11.1119 21.5767 11.2164 21.5663 11.3196 21.5772H12.6096C12.7419 21.5772 12.8688 21.5259 12.9623 21.4345C13.0559 21.3431 13.1084 21.2192 13.1084 21.09C13.1084 20.9608 13.0559 20.8368 12.9623 20.7455C12.8688 20.6541 12.7419 20.6028 12.6096 20.6028H11.6636C11.6088 20.5987 11.5574 20.575 11.5194 20.5363C11.4813 20.4975 11.4592 20.4464 11.4572 20.3928C11.4572 20.3641 11.463 20.3357 11.4742 20.3092C11.4855 20.2827 11.5019 20.2586 11.5227 20.2384C11.5435 20.2181 11.5681 20.202 11.5952 20.191C11.6224 20.18 11.6514 20.1744 11.6808 20.1744H14.708C14.7563 20.1831 14.8059 20.1831 14.8542 20.1744C14.9543 20.1445 15.0422 20.0846 15.1054 20.0031C15.1687 19.9217 15.2042 19.823 15.2068 19.7208C15.2058 19.646 15.1875 19.5723 15.1533 19.5054C15.119 19.4385 15.0697 19.38 15.009 19.3344C14.9236 19.2678 14.8172 19.2322 14.708 19.2336H12.3C12.0662 19.2336 11.842 19.1429 11.6767 18.9814C11.5114 18.8199 11.4185 18.6009 11.4185 18.3726C11.4185 18.1442 11.5114 17.9252 11.6767 17.7638C11.842 17.6023 12.0662 17.5116 12.3 17.5116H14.1834C14.2538 17.5207 14.3254 17.515 14.3934 17.4949C14.4613 17.4747 14.5241 17.4407 14.5775 17.395C14.631 17.3492 14.6738 17.2929 14.7031 17.2297C14.7324 17.1665 14.7476 17.098 14.7476 17.0286C14.7476 16.9592 14.7324 16.8906 14.7031 16.8275C14.6738 16.7643 14.631 16.7079 14.5775 16.6622C14.5241 16.6165 14.4613 16.5824 14.3934 16.5623C14.3254 16.5422 14.2538 16.5365 14.1834 16.5456H12.558C12.4797 16.5434 12.4053 16.5115 12.3507 16.4566C12.2961 16.4017 12.2656 16.3281 12.2656 16.2516C12.2656 16.213 12.2734 16.1747 12.2885 16.1391C12.3036 16.1034 12.3258 16.071 12.3538 16.0437C12.3817 16.0164 12.4149 15.9947 12.4514 15.98C12.4879 15.9652 12.5271 15.9576 12.5666 15.9576H16.299C16.4313 15.9576 16.5582 15.9063 16.6517 15.8149C16.7453 15.7235 16.7978 15.5996 16.7978 15.4704C16.7975 15.3519 16.7514 15.2379 16.6688 15.1512H29.2592ZM26.8168 16.2852L26.5674 17.5704H20.5474C18.6038 17.52 18.879 16.2852 18.879 16.2852H26.8168ZM22.1384 19.4436C22.2116 19.7969 22.4108 20.1133 22.7007 20.3364C22.9905 20.5595 23.352 20.6747 23.7208 20.6616H26.06L26.3008 19.4436H22.1384ZM26.5416 17.856L26.2836 19.158H22.0352C21.8574 19.1649 21.6801 19.1361 21.5142 19.0734C21.3483 19.0107 21.1974 18.9153 21.0708 18.7932C20.9442 18.6711 20.8446 18.5249 20.7783 18.3637C20.7119 18.2025 20.6802 18.0297 20.685 17.856H26.5416Z" fill="white"/>
<path d="M10.8896 26.8944H15.9808L15.7142 28.3644H12.4204L12.1882 29.6412H15.0434L14.7768 31.1112H11.9302L11.4314 33.8412H9.63397L10.8896 26.8944Z" fill="white"/>
<path d="M20.9086 26.886C21.2258 26.8348 21.5511 26.8642 21.8533 26.9712C22.1555 27.0783 22.4245 27.2595 22.6343 27.4973C22.8442 27.7352 22.9879 28.0218 23.0516 28.3296C23.1154 28.6373 23.0971 28.9559 22.9984 29.2548C22.9218 29.767 22.6982 30.2476 22.3534 30.6408C22.0202 31.0174 21.5803 31.2892 21.0892 31.422L21.9664 33.8412H19.9626L19.2402 31.5396H18.449L18.0362 33.8412H16.256L17.5116 26.886H20.9086ZM20.4184 28.3896H19.0166L18.6984 30.12H20.0744C20.2073 30.1327 20.3415 30.1194 20.4691 30.0809C20.5967 30.0424 20.7151 29.9795 20.8176 29.8959C20.9201 29.8122 21.0045 29.7095 21.0658 29.5937C21.1272 29.4778 21.1644 29.3512 21.1752 29.2212C21.2784 28.6668 21.0118 28.3896 20.4184 28.3896Z" fill="white"/>
<path d="M24.7184 26.8944H29.6118L29.328 28.3644H26.275L26.0428 29.6412H28.9668L28.7088 31.1112H25.7848L25.5784 32.3628H28.683L28.3734 33.8412H23.4886L24.7184 26.8944Z" fill="white"/>
<path d="M31.4694 26.8944H36.3628L36.0876 28.3644H33.0002L32.768 29.6412H35.692L35.434 31.1112H32.51L32.2778 32.3796H35.3738L35.0986 33.8412H30.2138L31.4694 26.8944Z" fill="white"/>
</svg>
