<svg xmlns="http://www.w3.org/2000/svg" width="37" height="37" fill="none" viewBox="0 0 37 37">
  <circle cx="18.5" cy="18.5" r="18" fill="#fff" stroke="#757575"/>
  <path fill="#000" fill-opacity=".54" fill-rule="evenodd" d="M22.167 12.333v5.834c0 .916-.75 1.666-1.667 1.666H13l-3.333 3.334V12.333c0-.916.75-1.666 1.667-1.666H20.5c.917 0 1.667.75 1.667 1.666zM23.834 14h.833c.917 0 1.667.75 1.667 1.667v11.666L23 24h-8.333C13.75 24 13 23.25 13 22.333V21.5h10a.836.836 0 00.834-.833V14z" clip-rule="evenodd"/>
</svg>
