<svg xmlns="http://www.w3.org/2000/svg" width="24" height="24" fill="none" viewBox="0 0 24 24">
  <path fill="#000" fill-opacity=".54" fill-rule="evenodd" d="M19 6.5h-2c0-2.76-2.24-5-5-5s-5 2.24-5 5H5c-1.1 0-2 .9-2 2v12c0 1.1.9 2 2 2h14c1.1 0 2-.9 2-2v-12c0-1.1-.9-2-2-2zm-7-3c1.66 0 3 1.34 3 3H9c0-1.66 1.34-3 3-3zM7.16 9.75A4.99 4.99 0 0012 13.5a4.99 4.99 0 004.84-3.75c.16-.63-.32-1.25-.97-1.25-.47 0-.85.34-.98.8a2.997 2.997 0 01-5.78 0c-.13-.46-.51-.8-.98-.8-.65 0-1.14.62-.97 1.25z" clip-rule="evenodd"/>
</svg>
